delayedflow analysis in R tidyverse • delayedflow
…
df2 <- df %>% 
    group_by(filename) %>% 
    summarise(cdc = dfi_n(q = q, n = 1:180)$dfi, .groups = "keep", n = 0:180 ) %>% 
    ungroup()

df2

## # A tibble: 724 x 3
##    filename     cdc     n
##    <chr>      <dbl> <int>
##  1 catchment1 1         0
##  2 catchment1 0.953     1
##  3 catchment1 0.895     2
##  4 catchment1 0.853     3
##  5 catchment1 0.816     4
##  6 catchment1 0.791     5
##  7 catchment1 0.764     6
##  8 catchment1 0.747     7
##  9 catchment1 0.727     8
## 10 catchment1 0.718     9
## # … with 714 more rows
…
